{
    "openapi": "3.0.0",
    "info": {
        "title": "E commerce app API Documentation.",
        "description": "Ecommerce app is a platform to sell products (New or Used). It will be free to list item and sell.",
        "termsOfService": "http://www.3callistos.com/",
        "contact": {
            "name": "Jinesh Subedi",
            "email": "jinesh.3c@gmail.com"
        },
        "license": {
            "name": "Apache 2.0",
            "url": "http://www.apache.org/licenses/LICENSE-2.0.html"
        },
        "version": "1.0.0"
    },
    "servers": [
        {
            "url": "/api/v1"
        }
    ],
    "paths": {
        "/article/filter": {
            "get": {
                "tags": [
                    "Search"
                ],
                "summary": "article filter",
                "description": "article filter",
                "operationId": "App\\Http\\Controllers\\Api\\v1\\ArticleController::filter",
                "responses": {
                    "200": {
                        "description": "note filtered successful",
                        "content": {
                            "application/json": {
                                "schema": {
                                    "type": "object"
                                }
                            }
                        },
                        "links": {
                            "SearchFilter": {
                                "operationId": "SearchFilter",
                                "parameters": {
                                    "year": "2019",
                                    "offset": "1",
                                    "limit": "10"
                                }
                            }
                        }
                    },
                    "default": {
                        "description": "unexpected error",
                        "content": {
                            "application/json": {
                                "schema": {
                                    "type": "object"
                                }
                            }
                        }
                    }
                },
                "security": [
                    {
                        "App_Key": ""
                    }
                ]
            }
        },
        "/bannerImage": {
            "get": {
                "tags": [
                    "Search"
                ],
                "summary": "bannerImage filter",
                "description": "bannerImage filter",
                "operationId": "App\\Http\\Controllers\\Api\\v1\\ArticleController::bannerImage",
                "responses": {
                    "200": {
                        "description": "bannerImage filtered successful",
                        "content": {
                            "application/json": {
                                "schema": {
                                    "type": "object"
                                }
                            }
                        },
                        "links": {
                            "SearchFilter": {
                                "operationId": "SearchFilter",
                                "parameters": []
                            }
                        }
                    },
                    "default": {
                        "description": "unexpected error",
                        "content": {
                            "application/json": {
                                "schema": {
                                    "type": "object"
                                }
                            }
                        }
                    }
                },
                "security": [
                    {
                        "App_Key": ""
                    }
                ]
            }
        },
        "/booking": {
            "post": {
                "tags": [
                    "booking"
                ],
                "summary": "send message to admin admins",
                "description": "send message",
                "operationId": "App\\Http\\Controllers\\Api\\v1\\BookingController::bookingRequest",
                "requestBody": {
                    "description": "conatct send message",
                    "required": true,
                    "content": {
                        "multipart/form-data": {
                            "schema": {
                                "properties": {
                                    "name": {
                                        "description": "name",
                                        "type": "string"
                                    },
                                    "email": {
                                        "description": "email",
                                        "type": "string"
                                    },
                                    "address": {
                                        "description": "address",
                                        "type": "string"
                                    },
                                    "phone": {
                                        "description": "phone",
                                        "type": "string"
                                    },
                                    "course": {
                                        "description": "course",
                                        "type": "string"
                                    },
                                    "college": {
                                        "description": "college",
                                        "type": "string"
                                    },
                                    "amount": {
                                        "description": "amount",
                                        "type": "string"
                                    },
                                    "shift": {
                                        "enum": [
                                            "morning",
                                            "day"
                                        ]
                                    },
                                    "payment_from": {
                                        "enum": [
                                            "bank",
                                            "e-sewa"
                                        ]
                                    },
                                    "image": {
                                        "description": "image",
                                        "type": "file"
                                    }
                                },
                                "type": "object"
                            }
                        }
                    }
                },
                "responses": {
                    "200": {
                        "description": "message sent successfully",
                        "content": {
                            "application/json": {
                                "schema": {
                                    "type": "object"
                                }
                            }
                        },
                        "links": {
                            "index": {
                                "operationId": "message"
                            }
                        }
                    },
                    "default": {
                        "description": "an \"unexpected\" error",
                        "content": {
                            "application/json": {
                                "schema": {
                                    "type": "object"
                                }
                            }
                        }
                    }
                },
                "security": [
                    {
                        "App_Key": ""
                    }
                ]
            }
        },
        "/category": {
            "get": {
                "tags": [
                    "Search"
                ],
                "summary": "getCategory",
                "description": "getCategory",
                "operationId": "App\\Http\\Controllers\\Api\\v1\\CapsuleController::getCategory",
                "responses": {
                    "200": {
                        "description": "getCategory successful",
                        "content": {
                            "application/json": {
                                "schema": {
                                    "type": "object"
                                }
                            }
                        },
                        "links": {
                            "getCategory": {
                                "operationId": "getCategory",
                                "parameters": []
                            }
                        }
                    },
                    "default": {
                        "description": "unexpected error",
                        "content": {
                            "application/json": {
                                "schema": {
                                    "type": "object"
                                }
                            }
                        }
                    }
                },
                "security": [
                    {
                        "App_Key": ""
                    }
                ]
            }
        },
        "/capsule": {
            "get": {
                "tags": [
                    "Search"
                ],
                "summary": "getCategory",
                "description": "getCategory",
                "operationId": "App\\Http\\Controllers\\Api\\v1\\CapsuleController::getCapsule",
                "parameters": [
                    {
                        "name": "category_id",
                        "in": "query",
                        "description": "category_id",
                        "schema": {
                            "type": "string"
                        }
                    }
                ],
                "responses": {
                    "200": {
                        "description": "getCategory successful",
                        "content": {
                            "application/json": {
                                "schema": {
                                    "type": "object"
                                }
                            }
                        },
                        "links": {
                            "getCategory": {
                                "operationId": "getCategory",
                                "parameters": []
                            }
                        }
                    },
                    "default": {
                        "description": "unexpected error",
                        "content": {
                            "application/json": {
                                "schema": {
                                    "type": "object"
                                }
                            }
                        }
                    }
                },
                "security": [
                    {
                        "App_Key": ""
                    }
                ]
            }
        },
        "/contact": {
            "post": {
                "tags": [
                    "contact"
                ],
                "summary": "send message to admin admins",
                "description": "send message",
                "operationId": "App\\Http\\Controllers\\Api\\v1\\ContactController::postContact",
                "requestBody": {
                    "description": "conatct send message",
                    "required": true,
                    "content": {
                        "multipart/form-data": {
                            "schema": {
                                "properties": {
                                    "name": {
                                        "description": "name",
                                        "type": "string"
                                    },
                                    "email": {
                                        "description": "email",
                                        "type": "string"
                                    },
                                    "subject": {
                                        "description": "subject",
                                        "type": "string"
                                    },
                                    "message": {
                                        "description": "message",
                                        "type": "string"
                                    }
                                },
                                "type": "object"
                            }
                        }
                    }
                },
                "responses": {
                    "200": {
                        "description": "message sent successfully",
                        "content": {
                            "application/json": {
                                "schema": {
                                    "type": "object"
                                }
                            }
                        },
                        "links": {
                            "index": {
                                "operationId": "message"
                            }
                        }
                    },
                    "default": {
                        "description": "an \"unexpected\" error",
                        "content": {
                            "application/json": {
                                "schema": {
                                    "type": "object"
                                }
                            }
                        }
                    }
                },
                "security": [
                    {
                        "App_Key": ""
                    }
                ]
            }
        },
        "/note/filter": {
            "get": {
                "tags": [
                    "Search"
                ],
                "summary": "Note filter",
                "description": "Note filter",
                "operationId": "App\\Http\\Controllers\\Api\\v1\\NoteController::filter",
                "parameters": [
                    {
                        "name": "department",
                        "in": "query",
                        "description": "department",
                        "schema": {
                            "type": "string"
                        }
                    },
                    {
                        "name": "semester",
                        "in": "query",
                        "description": "semester",
                        "schema": {
                            "type": "string"
                        }
                    }
                ],
                "responses": {
                    "200": {
                        "description": "note filtered successful",
                        "content": {
                            "application/json": {
                                "schema": {
                                    "type": "object"
                                }
                            }
                        },
                        "links": {
                            "SearchFilter": {
                                "operationId": "SearchFilter",
                                "parameters": {
                                    "department": "5",
                                    "semester": "semester one"
                                }
                            }
                        }
                    },
                    "default": {
                        "description": "unexpected error",
                        "content": {
                            "application/json": {
                                "schema": {
                                    "type": "object"
                                }
                            }
                        }
                    }
                },
                "security": [
                    {
                        "App_Key": ""
                    }
                ]
            }
        },
        "/department": {
            "get": {
                "tags": [
                    "Search"
                ],
                "summary": "department filter",
                "description": "department filter",
                "operationId": "App\\Http\\Controllers\\Api\\v1\\NoteController::getDepartment",
                "responses": {
                    "200": {
                        "description": "department filtered successful",
                        "content": {
                            "application/json": {
                                "schema": {
                                    "type": "object"
                                }
                            }
                        },
                        "links": {
                            "SearchFilter": {
                                "operationId": "SearchFilter",
                                "parameters": []
                            }
                        }
                    },
                    "default": {
                        "description": "unexpected error",
                        "content": {
                            "application/json": {
                                "schema": {
                                    "type": "object"
                                }
                            }
                        }
                    }
                },
                "security": [
                    {
                        "App_Key": ""
                    }
                ]
            }
        },
        "/notice": {
            "get": {
                "tags": [
                    "Search"
                ],
                "summary": "Notice",
                "description": "Notice",
                "operationId": "App\\Http\\Controllers\\Api\\v1\\NoticeController::getNotice",
                "responses": {
                    "200": {
                        "description": "note filtered successful",
                        "content": {
                            "application/json": {
                                "schema": {
                                    "type": "object"
                                }
                            }
                        },
                        "links": {
                            "SearchFilter": {
                                "operationId": "SearchFilter",
                                "parameters": {
                                    "department": "5",
                                    "semester": "semester one"
                                }
                            }
                        }
                    },
                    "default": {
                        "description": "unexpected error",
                        "content": {
                            "application/json": {
                                "schema": {
                                    "type": "object"
                                }
                            }
                        }
                    }
                },
                "security": [
                    {
                        "App_Key": ""
                    }
                ]
            }
        },
        "/oldquestion/filter": {
            "get": {
                "tags": [
                    "Search"
                ],
                "summary": "old question filter",
                "description": "old question filter",
                "operationId": "App\\Http\\Controllers\\Api\\v1\\OldQuestionController::filter",
                "parameters": [
                    {
                        "name": "department",
                        "in": "query",
                        "description": "department",
                        "schema": {
                            "type": "string"
                        }
                    },
                    {
                        "name": "semester",
                        "in": "query",
                        "description": "semester",
                        "schema": {
                            "type": "string"
                        }
                    }
                ],
                "responses": {
                    "200": {
                        "description": "note filtered successful",
                        "content": {
                            "application/json": {
                                "schema": {
                                    "type": "object"
                                }
                            }
                        },
                        "links": {
                            "SearchFilter": {
                                "operationId": "SearchFilter",
                                "parameters": {
                                    "department": "5",
                                    "semester": "1"
                                }
                            }
                        }
                    },
                    "default": {
                        "description": "unexpected error",
                        "content": {
                            "application/json": {
                                "schema": {
                                    "type": "object"
                                }
                            }
                        }
                    }
                },
                "security": [
                    {
                        "App_Key": ""
                    }
                ]
            }
        },
        "/result/filter": {
            "get": {
                "tags": [
                    "Search"
                ],
                "summary": "result filter",
                "description": "result filter",
                "operationId": "App\\Http\\Controllers\\Api\\v1\\ResultController::filter",
                "responses": {
                    "200": {
                        "description": "note filtered successful",
                        "content": {
                            "application/json": {
                                "schema": {
                                    "type": "object"
                                }
                            }
                        },
                        "links": {
                            "SearchFilter": {
                                "operationId": "SearchFilter",
                                "parameters": {
                                    "year": "2019",
                                    "offset": "1",
                                    "limit": "10"
                                }
                            }
                        }
                    },
                    "default": {
                        "description": "unexpected error",
                        "content": {
                            "application/json": {
                                "schema": {
                                    "type": "object"
                                }
                            }
                        }
                    }
                },
                "security": [
                    {
                        "App_Key": ""
                    }
                ]
            }
        },
        "/syllabus": {
            "get": {
                "tags": [
                    "Search"
                ],
                "summary": "syllabus filter",
                "description": "syllabus filter",
                "operationId": "App\\Http\\Controllers\\Api\\v1\\SyllabusController::filter",
                "responses": {
                    "200": {
                        "description": "note filtered successful",
                        "content": {
                            "application/json": {
                                "schema": {
                                    "type": "object"
                                }
                            }
                        },
                        "links": {
                            "SearchFilter": {
                                "operationId": "SearchFilter",
                                "parameters": {
                                    "offset": "1",
                                    "limit": "10"
                                }
                            }
                        }
                    },
                    "default": {
                        "description": "unexpected error",
                        "content": {
                            "application/json": {
                                "schema": {
                                    "type": "object"
                                }
                            }
                        }
                    }
                },
                "security": [
                    {
                        "App_Key": ""
                    }
                ]
            }
        },
        "/taxonomy/filter": {
            "get": {
                "tags": [
                    "Search"
                ],
                "summary": "taxonomy filter",
                "description": "taxonomy filter",
                "operationId": "App\\Http\\Controllers\\Api\\v1\\TaxonomyController::filter",
                "responses": {
                    "200": {
                        "description": "note filtered successful",
                        "content": {
                            "application/json": {
                                "schema": {
                                    "type": "object"
                                }
                            }
                        },
                        "links": {
                            "SearchFilter": {
                                "operationId": "SearchFilter",
                                "parameters": {
                                    "year": "2019",
                                    "offset": "1",
                                    "limit": "10"
                                }
                            }
                        }
                    },
                    "default": {
                        "description": "unexpected error",
                        "content": {
                            "application/json": {
                                "schema": {
                                    "type": "object"
                                }
                            }
                        }
                    }
                },
                "security": [
                    {
                        "App_Key": ""
                    }
                ]
            }
        }
    },
    "components": {
        "securitySchemes": {
            "App_Key": {
                "type": "apiKey",
                "name": "X-APP-TOKEN",
                "in": "header"
            }
        }
    }
}